# Wavefront OBJ exported by MilkShape 3D

mtllib roundshield.mtl

v 41.833500 0.001000 -0.001000
v 39.785999 0.001000 -12.927900
v 33.844200 0.001000 -24.589500
v 24.589500 0.001000 -33.844200
v 12.927900 0.001000 -39.785999
v 0.001000 0.001010 -41.833500
v -12.925900 0.001010 -39.785999
v -24.587500 0.001010 -33.844200
v -33.842201 0.001010 -24.589500
v -39.784000 0.001000 -12.927900
v -41.831501 0.001000 -0.000990
v -39.784000 0.001000 12.926000
v -33.842201 0.001000 24.587500
v -24.587500 0.001000 33.842201
v -12.925900 0.001000 39.784000
v 0.001040 0.000990 41.831501
v 12.928000 0.000990 39.784000
v 24.589500 0.000990 33.842098
v 33.844200 0.000990 24.587500
v 39.786098 0.001000 12.925900
v 17.063801 5.730830 -0.001000
v 16.228701 5.730840 -5.273710
v 13.805100 5.730840 -10.030300
v 10.030300 5.730840 -13.805100
v 5.273710 5.730840 -16.228701
v 0.001010 5.730840 -17.063801
v -5.271700 5.730840 -16.228701
v -10.028300 5.730840 -13.805100
v -13.803100 5.730840 -10.030300
v -16.226700 5.730840 -5.273700
v -17.061800 5.730840 -0.001000
v -16.226700 5.730840 5.271710
v -13.803100 5.730840 10.028300
v -10.028300 5.730830 13.803100
v -5.271690 5.730830 16.226700
v 0.001020 5.730830 17.061800
v 5.273730 5.730830 16.226700
v 10.030300 5.730830 13.803100
v 13.805100 5.730830 10.028300
v 16.228701 5.730830 5.271680
v 40.940800 -2.282710 -13.303100
v 43.047699 -2.282710 -0.001000
v 40.940800 -2.282710 13.301100
v 34.826500 -2.282710 25.301100
v 25.303200 -2.282710 34.824402
v 13.303200 -2.282710 40.938801
v 0.001040 -2.282710 43.045601
v -13.301100 -2.282710 40.938801
v -25.301201 -2.282710 34.824501
v -34.824501 -2.282710 25.301201
v -40.938801 -2.282710 13.301200
v -43.045700 -2.282700 -0.000990
v -40.938801 -2.282700 -13.303100
v -34.824501 -2.282700 -25.303200
v -25.301201 -2.282700 -34.826500
v -13.301100 -2.282700 -40.940800
v 0.001000 -2.282700 -43.047600
v 13.303100 -2.282700 -40.940800
v 25.303200 -2.282700 -34.826500
v 34.826500 -2.282710 -25.303200
v 0.001000 9.977390 0.882920
v 0.001000 8.705390 -3.188790
v -2.878130 8.705390 -1.996210
v -4.070710 8.705390 0.882920
v -2.878130 8.705390 3.762050
v 0.001000 8.705390 4.954630
v 2.880130 8.705390 3.762050
v 4.072710 8.705390 0.882920
v 2.880140 8.705390 -1.996210
v 0.001000 5.634510 -4.875340
v -4.070710 5.634510 -3.188790
v -5.757270 5.634510 0.882920
v -4.070710 5.634510 4.954630
v 0.001000 5.634510 6.641190
v 4.072710 5.634510 4.954630
v 5.759270 5.634510 0.882920
v 4.072710 5.634510 -3.188790
v 10.913000 -3.022290 10.823800
v 14.797600 -3.022290 10.823800
v 10.913000 -3.022290 7.366750
v 14.797600 -3.022290 7.366750
v 10.913000 -5.233550 1.925600
v 14.797600 -5.233550 1.925600
v 10.913000 -5.233550 -3.515540
v 14.797600 -5.233550 -3.515540
v 10.913000 -3.022290 -8.956680
v 14.797600 -3.022290 -8.956680
v 10.913000 -3.022290 -12.413700
v 14.797600 -3.022290 -12.413700
v 10.913000 -1.971950 12.807900
v 14.797600 -1.971950 12.807900
v 10.913000 -1.971950 7.366750
v 14.797600 -1.971950 7.366750
v 10.913000 -4.183200 1.925600
v 14.797600 -4.183200 1.925600
v 10.913000 -4.183200 -3.515540
v 14.797600 -4.183200 -3.515540
v 10.913000 -1.971940 -8.956680
v 14.797600 -1.971940 -8.956680
v 10.913000 -1.971940 -14.397800
v 14.797600 -1.971940 -14.397800
v -14.357200 -3.022290 10.823800
v -10.472600 -3.022290 10.823800
v -14.357200 -3.022290 7.366750
v -10.472600 -3.022290 7.366750
v -14.357200 -7.586850 1.925600
v -10.472600 -7.586850 1.925600
v -14.357200 -7.586850 -3.515540
v -10.472600 -7.586850 -3.515540
v -14.357200 -3.022290 -8.956680
v -10.472600 -3.022290 -8.956680
v -14.357200 -3.022290 -12.413700
v -10.472500 -3.022290 -12.413700
v -14.357200 -1.971940 12.807900
v -10.472600 -1.971950 12.807900
v -14.357200 -1.971940 7.366740
v -10.472600 -1.971940 7.366740
v -14.357200 -6.536500 1.925600
v -10.472600 -6.536500 1.925600
v -14.357200 -6.536500 -3.515540
v -10.472600 -6.536500 -3.515540
v -14.357200 -1.971940 -8.956680
v -10.472600 -1.971940 -8.956680
v -14.357200 -1.971940 -14.397800
v -10.472500 -1.971940 -14.397800
v 39.785999 0.001000 -12.927900
v 41.833500 0.001000 -0.001000
v 43.047699 -2.282710 -0.001000
v 43.047699 -2.282710 -0.001000
v 40.940800 -2.282710 -13.303100
v 39.785999 0.001000 -12.927900
v 41.833500 0.001000 -0.001000
v 39.786098 0.001000 12.925900
v 40.940800 -2.282710 13.301100
v 40.940800 -2.282710 13.301100
v 43.047699 -2.282710 -0.001000
v 41.833500 0.001000 -0.001000
v 39.786098 0.001000 12.925900
v 33.844200 0.000990 24.587500
v 34.826500 -2.282710 25.301100
v 34.826500 -2.282710 25.301100
v 40.940800 -2.282710 13.301100
v 39.786098 0.001000 12.925900
v 33.844200 0.000990 24.587500
v 24.589500 0.000990 33.842098
v 25.303200 -2.282710 34.824402
v 25.303200 -2.282710 34.824402
v 34.826500 -2.282710 25.301100
v 33.844200 0.000990 24.587500
v 24.589500 0.000990 33.842098
v 12.928000 0.000990 39.784000
v 13.303200 -2.282710 40.938801
v 13.303200 -2.282710 40.938801
v 25.303200 -2.282710 34.824402
v 24.589500 0.000990 33.842098
v 12.928000 0.000990 39.784000
v 0.001040 0.000990 41.831501
v 0.001040 -2.282710 43.045601
v 0.001040 -2.282710 43.045601
v 13.303200 -2.282710 40.938801
v 12.928000 0.000990 39.784000
v 0.001040 0.000990 41.831501
v -12.925900 0.001000 39.784000
v -13.301100 -2.282710 40.938801
v -13.301100 -2.282710 40.938801
v 0.001040 -2.282710 43.045601
v 0.001040 0.000990 41.831501
v -12.925900 0.001000 39.784000
v -24.587500 0.001000 33.842201
v -25.301201 -2.282710 34.824501
v -25.301201 -2.282710 34.824501
v -13.301100 -2.282710 40.938801
v -12.925900 0.001000 39.784000
v -24.587500 0.001000 33.842201
v -33.842201 0.001000 24.587500
v -34.824501 -2.282710 25.301201
v -34.824501 -2.282710 25.301201
v -25.301201 -2.282710 34.824501
v -24.587500 0.001000 33.842201
v -33.842201 0.001000 24.587500
v -39.784000 0.001000 12.926000
v -40.938801 -2.282710 13.301200
v -40.938801 -2.282710 13.301200
v -34.824501 -2.282710 25.301201
v -33.842201 0.001000 24.587500
v -39.784000 0.001000 12.926000
v -41.831501 0.001000 -0.000990
v -43.045700 -2.282700 -0.000990
v -43.045700 -2.282700 -0.000990
v -40.938801 -2.282710 13.301200
v -39.784000 0.001000 12.926000
v -41.831501 0.001000 -0.000990
v -39.784000 0.001000 -12.927900
v -40.938801 -2.282700 -13.303100
v -40.938801 -2.282700 -13.303100
v -43.045700 -2.282700 -0.000990
v -41.831501 0.001000 -0.000990
v -39.784000 0.001000 -12.927900
v -33.842201 0.001010 -24.589500
v -34.824501 -2.282700 -25.303200
v -34.824501 -2.282700 -25.303200
v -40.938801 -2.282700 -13.303100
v -39.784000 0.001000 -12.927900
v -33.842201 0.001010 -24.589500
v -24.587500 0.001010 -33.844200
v -25.301201 -2.282700 -34.826500
v -25.301201 -2.282700 -34.826500
v -34.824501 -2.282700 -25.303200
v -33.842201 0.001010 -24.589500
v -24.587500 0.001010 -33.844200
v -12.925900 0.001010 -39.785999
v -13.301100 -2.282700 -40.940800
v -13.301100 -2.282700 -40.940800
v -25.301201 -2.282700 -34.826500
v -24.587500 0.001010 -33.844200
v -12.925900 0.001010 -39.785999
v 0.001000 0.001010 -41.833500
v 0.001000 -2.282700 -43.047600
v 0.001000 -2.282700 -43.047600
v -13.301100 -2.282700 -40.940800
v -12.925900 0.001010 -39.785999
v 0.001000 0.001010 -41.833500
v 12.927900 0.001000 -39.785999
v 13.303100 -2.282700 -40.940800
v 13.303100 -2.282700 -40.940800
v 0.001000 -2.282700 -43.047600
v 0.001000 0.001010 -41.833500
v 12.927900 0.001000 -39.785999
v 24.589500 0.001000 -33.844200
v 25.303200 -2.282700 -34.826500
v 25.303200 -2.282700 -34.826500
v 13.303100 -2.282700 -40.940800
v 12.927900 0.001000 -39.785999
v 24.589500 0.001000 -33.844200
v 33.844200 0.001000 -24.589500
v 34.826500 -2.282710 -25.303200
v 34.826500 -2.282710 -25.303200
v 25.303200 -2.282700 -34.826500
v 24.589500 0.001000 -33.844200
v 33.844200 0.001000 -24.589500
v 39.785999 0.001000 -12.927900
v 40.940800 -2.282710 -13.303100
v 40.940800 -2.282710 -13.303100
v 34.826500 -2.282710 -25.303200
v 33.844200 0.001000 -24.589500
v 14.797600 -3.022290 10.823800
v 14.797600 -3.022290 7.366750
v 14.797600 -1.971950 7.366750
v 14.797600 -1.971950 7.366750
v 14.797600 -1.971950 12.807900
v 14.797600 -3.022290 10.823800
v 14.797600 -3.022290 7.366750
v 14.797600 -5.233550 1.925600
v 14.797600 -4.183200 1.925600
v 14.797600 -4.183200 1.925600
v 14.797600 -1.971950 7.366750
v 14.797600 -3.022290 7.366750
v 14.797600 -5.233550 1.925600
v 14.797600 -5.233550 -3.515540
v 14.797600 -4.183200 -3.515540
v 14.797600 -4.183200 -3.515540
v 14.797600 -4.183200 1.925600
v 14.797600 -5.233550 1.925600
v 14.797600 -5.233550 -3.515540
v 14.797600 -3.022290 -8.956680
v 14.797600 -1.971940 -8.956680
v 14.797600 -1.971940 -8.956680
v 14.797600 -4.183200 -3.515540
v 14.797600 -5.233550 -3.515540
v 14.797600 -3.022290 -8.956680
v 14.797600 -3.022290 -12.413700
v 14.797600 -1.971940 -8.956680
v 14.797600 -3.022290 -8.956680
v 14.797600 -1.971940 -14.397800
v 10.913000 -3.022290 -12.413700
v 10.913000 -3.022290 -8.956680
v 10.913000 -1.971940 -8.956680
v 10.913000 -1.971940 -8.956680
v 10.913000 -1.971940 -14.397800
v 10.913000 -3.022290 -12.413700
v 10.913000 -3.022290 -8.956680
v 10.913000 -5.233550 -3.515540
v 10.913000 -4.183200 -3.515540
v 10.913000 -4.183200 -3.515540
v 10.913000 -1.971940 -8.956680
v 10.913000 -3.022290 -8.956680
v 10.913000 -5.233550 -3.515540
v 10.913000 -5.233550 1.925600
v 10.913000 -4.183200 1.925600
v 10.913000 -4.183200 1.925600
v 10.913000 -4.183200 -3.515540
v 10.913000 -5.233550 -3.515540
v 10.913000 -5.233550 1.925600
v 10.913000 -3.022290 7.366750
v 10.913000 -1.971950 7.366750
v 10.913000 -1.971950 7.366750
v 10.913000 -4.183200 1.925600
v 10.913000 -5.233550 1.925600
v 10.913000 -3.022290 7.366750
v 10.913000 -3.022290 10.823800
v 10.913000 -1.971950 12.807900
v 10.913000 -1.971950 12.807900
v 10.913000 -1.971950 7.366750
v 10.913000 -3.022290 7.366750
v -10.472600 -3.022290 10.823800
v -10.472600 -3.022290 7.366750
v -10.472600 -1.971940 7.366740
v -10.472600 -1.971940 7.366740
v -10.472600 -1.971950 12.807900
v -10.472600 -3.022290 10.823800
v -10.472600 -3.022290 7.366750
v -10.472600 -7.586850 1.925600
v -10.472600 -6.536500 1.925600
v -10.472600 -6.536500 1.925600
v -10.472600 -1.971940 7.366740
v -10.472600 -3.022290 7.366750
v -10.472600 -7.586850 1.925600
v -10.472600 -7.586850 -3.515540
v -10.472600 -6.536500 -3.515540
v -10.472600 -6.536500 -3.515540
v -10.472600 -6.536500 1.925600
v -10.472600 -7.586850 1.925600
v -10.472600 -7.586850 -3.515540
v -10.472600 -3.022290 -8.956680
v -10.472600 -1.971940 -8.956680
v -10.472600 -1.971940 -8.956680
v -10.472600 -6.536500 -3.515540
v -10.472600 -7.586850 -3.515540
v -10.472600 -3.022290 -8.956680
v -10.472500 -3.022290 -12.413700
v -10.472600 -1.971940 -8.956680
v -10.472600 -3.022290 -8.956680
v -10.472500 -1.971940 -14.397800
v -14.357200 -3.022290 -12.413700
v -14.357200 -3.022290 -8.956680
v -14.357200 -1.971940 -8.956680
v -14.357200 -1.971940 -8.956680
v -14.357200 -1.971940 -14.397800
v -14.357200 -3.022290 -12.413700
v -14.357200 -3.022290 -8.956680
v -14.357200 -7.586850 -3.515540
v -14.357200 -6.536500 -3.515540
v -14.357200 -6.536500 -3.515540
v -14.357200 -1.971940 -8.956680
v -14.357200 -3.022290 -8.956680
v -14.357200 -7.586850 -3.515540
v -14.357200 -7.586850 1.925600
v -14.357200 -6.536500 1.925600
v -14.357200 -6.536500 1.925600
v -14.357200 -6.536500 -3.515540
v -14.357200 -7.586850 -3.515540
v -14.357200 -7.586850 1.925600
v -14.357200 -3.022290 7.366750
v -14.357200 -1.971940 7.366740
v -14.357200 -1.971940 7.366740
v -14.357200 -6.536500 1.925600
v -14.357200 -7.586850 1.925600
v -14.357200 -3.022290 7.366750
v -14.357200 -3.022290 10.823800
v -14.357200 -1.971940 12.807900
v -14.357200 -1.971940 12.807900
v -14.357200 -1.971940 7.366740
v -14.357200 -3.022290 7.366750
# 363 vertices

vt 0.464230 0.524740
vt 0.453220 0.661680
vt 0.326620 0.580600
vt 0.331100 0.524740
vt 0.421290 0.785200
vt 0.313590 0.630980
vt 0.371550 0.883240
vt 0.293300 0.670970
vt 0.308880 0.946180
vt 0.267740 0.696640
vt 0.239400 0.967860
vt 0.239400 0.705490
vt 0.169930 0.946180
vt 0.211060 0.696640
vt 0.107250 0.883240
vt 0.185500 0.670970
vt 0.057520 0.785200
vt 0.165210 0.630980
vt 0.025580 0.661680
vt 0.152190 0.580600
vt 0.014580 0.524740
vt 0.147700 0.524740
vt 0.025580 0.387810
vt 0.152190 0.468890
vt 0.057520 0.264280
vt 0.165210 0.418510
vt 0.107250 0.166250
vt 0.185500 0.378520
vt 0.169930 0.103310
vt 0.211060 0.352850
vt 0.239400 0.081620
vt 0.239400 0.344000
vt 0.308880 0.103310
vt 0.267740 0.352850
vt 0.371550 0.166250
vt 0.293300 0.378520
vt 0.421290 0.264280
vt 0.313590 0.418510
vt 0.453220 0.387810
vt 0.326620 0.468890
vt 0.943220 0.271840
vt 0.893850 0.171640
vt 0.831640 0.107310
vt 0.762680 0.085140
vt 0.693720 0.107310
vt 0.631510 0.171640
vt 0.582140 0.271840
vt 0.550440 0.398090
vt 0.539510 0.538050
vt 0.550440 0.678000
vt 0.582140 0.804250
vt 0.631510 0.904450
vt 0.693720 0.968780
vt 0.762680 0.990950
vt 0.831640 0.968780
vt 0.893850 0.904450
vt 0.943220 0.804250
vt 0.974920 0.678000
vt 0.985840 0.538050
vt 0.974920 0.398090
vt 0.569720 0.009520
vt 0.513890 0.009520
vt 0.513890 0.056110
vt 0.569720 0.056110
vt 0.458050 0.009520
vt 0.458050 0.056110
vt 0.402210 0.009520
vt 0.402210 0.056110
vt 0.346380 0.009520
vt 0.346380 0.056110
vt 0.290540 0.009520
vt 0.290540 0.056110
vt 0.234710 0.009520
vt 0.234710 0.056110
vt 0.178870 0.009520
vt 0.178870 0.056110
vt 0.123030 0.009520
vt 0.123030 0.056110
vt 0.067200 0.009520
vt 0.067200 0.056110
vt 0.011360 0.009520
vt 0.011360 0.056110
vt 0.568390 0.009520
vt 0.512560 0.009520
vt 0.512560 0.056110
vt 0.568390 0.056110
vt 0.456720 0.009520
vt 0.456720 0.056110
vt 0.400880 0.009520
vt 0.400880 0.056110
vt 0.345050 0.009520
vt 0.345050 0.056110
vt 0.289210 0.009520
vt 0.289210 0.056110
vt 0.233380 0.009520
vt 0.233380 0.056110
vt 0.177540 0.009520
vt 0.177540 0.056110
vt 0.121700 0.009520
vt 0.121700 0.056110
vt 0.065870 0.009520
vt 0.065870 0.056110
vt 0.010030 0.009520
vt 0.010030 0.056110
vt 0.503070 0.203270
vt 0.515880 0.271420
vt 0.488000 0.269220
vt 0.468590 0.230260
vt 0.468860 0.175180
vt 0.488850 0.136270
vt 0.517030 0.136530
vt 0.536940 0.176320
vt 0.536840 0.232860
vt 0.483200 0.324300
vt 0.531590 0.316180
vt 0.445780 0.262820
vt 0.441110 0.166930
vt 0.472110 0.092200
vt 0.520920 0.082350
vt 0.559030 0.143760
vt 0.563740 0.240860
vt 0.810340 0.063990
vt 0.835230 0.063990
vt 0.835230 0.008870
vt 0.810340 0.008870
vt 0.874410 0.063990
vt 0.874410 0.008870
vt 0.913580 0.063990
vt 0.913580 0.008870
vt 0.952760 0.063990
vt 0.952760 0.008870
vt 0.977650 0.063990
vt 0.977650 0.008870
vt 0.012090 0.776360
vt 0.033470 0.776360
vt 0.033470 0.835380
vt 0.012090 0.835380
vt 0.033470 0.894400
vt 0.012090 0.894400
vt 0.033470 0.953420
vt 0.012090 0.953420
vt 0.796050 0.008870
vt 0.796050 0.063990
vt 0.591650 0.956220
vt 0.558770 0.956220
vt 0.558770 0.980850
vt 0.610520 0.980850
vt 0.507020 0.904380
vt 0.507020 0.929000
vt 0.455270 0.904380
vt 0.455270 0.929000
vt 0.403520 0.956220
vt 0.403520 0.980850
vt 0.370640 0.956220
vt 0.351770 0.980850
vt 0.991930 0.063990
vt 0.991930 0.008870
vt 0.595870 0.063270
vt 0.620760 0.063270
vt 0.620760 0.008150
vt 0.595870 0.008150
vt 0.659940 0.063270
vt 0.659940 0.008150
vt 0.699110 0.063270
vt 0.699110 0.008150
vt 0.738290 0.063270
vt 0.738290 0.008150
vt 0.763180 0.063270
vt 0.763180 0.008150
vt 0.491830 0.519050
vt 0.512900 0.519050
vt 0.512900 0.578940
vt 0.491830 0.578940
vt 0.512900 0.638830
vt 0.491830 0.638830
vt 0.512900 0.698720
vt 0.491830 0.698720
vt 0.581580 0.008150
vt 0.581580 0.063270
vt 0.591650 0.908250
vt 0.558770 0.908250
vt 0.558770 0.932880
vt 0.610520 0.932880
vt 0.507020 0.801230
vt 0.507020 0.825860
vt 0.455270 0.801230
vt 0.455270 0.825860
vt 0.403520 0.908250
vt 0.403520 0.932880
vt 0.370640 0.908250
vt 0.351770 0.932880
vt 0.777460 0.063270
vt 0.777460 0.008150
# 193 texture coordinates

vn 0.225357 0.974204 -0.011897
vn 0.210652 0.974203 -0.080955
vn 0.109682 0.993534 -0.029343
vn 0.169819 0.985435 0.008966
vn 0.175325 0.974203 -0.142087
vn 0.142656 0.985435 -0.092563
vn 0.122836 0.974203 -0.189312
vn 0.053589 0.996371 -0.066124
vn 0.058324 0.974203 -0.218005
vn 0.061003 0.985435 -0.158736
vn -0.011897 0.974204 -0.225357
vn 0.005986 0.993534 -0.113380
vn -0.080955 0.974203 -0.210651
vn -0.043950 0.985435 -0.164277
vn -0.142087 0.974204 -0.175325
vn -0.041166 0.997136 -0.063445
vn -0.189312 0.974204 -0.122836
vn -0.132116 0.985435 -0.107069
vn -0.218005 0.974203 -0.058324
vn -0.105982 0.993534 -0.040729
vn -0.225357 0.974204 0.011897
vn -0.169818 0.985435 -0.008966
vn -0.210651 0.974203 0.080955
vn -0.073060 0.997136 0.019546
vn -0.175324 0.974203 0.142088
vn -0.142654 0.985435 0.092563
vn -0.122836 0.974204 0.189312
vn -0.071485 0.993534 0.088208
vn -0.058323 0.974203 0.218005
vn -0.061003 0.985435 0.158736
vn 0.011898 0.974204 0.225357
vn -0.004487 0.996371 0.084995
vn 0.080956 0.974203 0.210651
vn 0.043950 0.985435 0.164277
vn 0.142088 0.974203 0.175325
vn 0.061801 0.993534 0.095245
vn 0.189311 0.974204 0.122837
vn 0.132116 0.985435 0.107070
vn 0.218004 0.974204 0.058324
vn 0.063516 0.997682 0.024410
vn 0.000000 -1.000000 0.000000
vn 0.874449 0.464925 -0.138505
vn 0.874461 0.464904 0.138500
vn 0.788858 0.464913 0.401945
vn 0.626032 0.464929 0.626039
vn 0.401942 0.464934 0.788847
vn 0.138506 0.464897 0.874463
vn -0.138503 0.464934 0.874444
vn -0.401936 0.464925 0.788855
vn -0.626036 0.464927 0.626036
vn -0.788850 0.464933 0.401937
vn -0.874448 0.464927 0.138503
vn -0.874443 0.464936 -0.138504
vn -0.788855 0.464925 -0.401936
vn -0.626036 0.464927 -0.626036
vn -0.401934 0.464933 -0.788851
vn -0.138507 0.464896 -0.874464
vn 0.138504 0.464936 -0.874443
vn 0.401936 0.464927 -0.788854
vn 0.626036 0.464927 -0.626036
vn 0.788851 0.464933 -0.401934
vn -0.000000 1.000000 0.000000
vn -0.076161 0.725777 -0.683701
vn -0.537303 0.725778 -0.429595
vn -0.683700 0.725778 0.076161
vn -0.429595 0.725778 0.537303
vn 0.076161 0.725778 0.683700
vn 0.537303 0.725778 0.429595
vn 0.683701 0.725777 -0.076161
vn 0.429596 0.725777 -0.537304
vn -0.530341 0.477900 -0.700250
vn 0.120144 0.477899 -0.870160
vn -0.870159 0.477901 -0.120144
vn -0.700249 0.477901 0.530341
vn -0.120144 0.477901 0.870159
vn 0.530341 0.477901 0.700249
vn 0.870159 0.477901 0.120144
vn 0.700250 0.477900 -0.530341
vn 0.000000 -0.970515 0.241039
vn 0.000000 -0.966888 0.255203
vn 0.000000 -0.991826 0.127601
vn 0.000000 -0.966887 -0.255203
vn 0.000000 -0.991826 -0.127602
vn 0.000000 -0.970515 -0.241041
vn 0.000000 0.926420 -0.376491
vn 0.000000 0.966888 -0.255202
vn 0.000000 0.991826 -0.127601
vn 0.000000 0.991826 0.127602
vn 0.000000 0.966887 0.255203
vn 0.000000 0.926419 0.376493
vn 0.000000 -0.883800 0.467865
vn 1.000000 0.000000 0.000000
vn 0.000000 -0.883798 -0.467868
vn -1.000000 0.000000 0.000000
vn 0.000000 -0.891696 0.452634
vn 0.000000 -0.974054 0.226317
vn 0.000000 -0.891696 -0.452635
vn 0.000000 -0.974054 -0.226317
vn 0.000000 0.766121 -0.642697
vn 0.000000 0.891696 -0.452635
vn 0.000000 0.974054 -0.226317
vn 0.000000 0.974054 0.226317
vn 0.000000 0.891696 0.452635
vn 0.000000 0.766121 0.642697
# 104 normals

g RoundShiel
usemtl Material01
s 3
f 1/1/1 2/2/2 22/3/3
f 22/3/3 21/4/4 1/1/1
f 2/2/2 3/5/5 23/6/6
f 23/6/6 22/3/3 2/2/2
f 3/5/5 4/7/7 24/8/8
f 24/8/8 23/6/6 3/5/5
f 4/7/7 5/9/9 25/10/10
f 25/10/10 24/8/8 4/7/7
f 5/9/9 6/11/11 26/12/12
f 26/12/12 25/10/10 5/9/9
f 6/11/11 7/13/13 27/14/14
f 27/14/14 26/12/12 6/11/11
f 7/13/13 8/15/15 28/16/16
f 28/16/16 27/14/14 7/13/13
f 8/15/15 9/17/17 29/18/18
f 29/18/18 28/16/16 8/15/15
f 9/17/17 10/19/19 30/20/20
f 30/20/20 29/18/18 9/17/17
f 10/19/19 11/21/21 31/22/22
f 31/22/22 30/20/20 10/19/19
f 11/21/21 12/23/23 32/24/24
f 32/24/24 31/22/22 11/21/21
f 12/23/23 13/25/25 33/26/26
f 33/26/26 32/24/24 12/23/23
f 13/25/25 14/27/27 34/28/28
f 34/28/28 33/26/26 13/25/25
f 14/27/27 15/29/29 35/30/30
f 35/30/30 34/28/28 14/27/27
f 15/29/29 16/31/31 36/32/32
f 36/32/32 35/30/30 15/29/29
f 16/31/31 17/33/33 37/34/34
f 37/34/34 36/32/32 16/31/31
f 17/33/33 18/35/35 38/36/36
f 38/36/36 37/34/34 17/33/33
f 18/35/35 19/37/37 39/38/38
f 39/38/38 38/36/36 18/35/35
f 19/37/37 20/39/39 40/40/40
f 40/40/40 39/38/38 19/37/37
f 20/39/39 1/1/1 21/4/4
f 21/4/4 40/40/40 20/39/39
f 44/41/41 45/42/41 46/43/41
f 46/43/41 47/44/41 48/45/41
f 48/45/41 49/46/41 50/47/41
f 46/43/41 48/45/41 50/47/41
f 50/47/41 51/48/41 52/49/41
f 52/49/41 53/50/41 54/51/41
f 50/47/41 52/49/41 54/51/41
f 54/51/41 55/52/41 56/53/41
f 56/53/41 57/54/41 58/55/41
f 54/51/41 56/53/41 58/55/41
f 58/55/41 59/56/41 60/57/41
f 60/57/41 41/58/41 42/59/41
f 58/55/41 60/57/41 42/59/41
f 54/51/41 58/55/41 42/59/41
f 50/47/41 54/51/41 42/59/41
f 46/43/41 50/47/41 42/59/41
f 44/41/41 46/43/41 42/59/41
f 43/60/41 44/41/41 42/59/41
f 22/3/3 23/6/6 24/8/8
f 24/8/8 25/10/10 26/12/12
f 26/12/12 27/14/14 28/16/16
f 24/8/8 26/12/12 28/16/16
f 28/16/16 29/18/18 30/20/20
f 30/20/20 31/22/22 32/24/24
f 28/16/16 30/20/20 32/24/24
f 32/24/24 33/26/26 34/28/28
f 34/28/28 35/30/30 36/32/32
f 32/24/24 34/28/28 36/32/32
f 36/32/32 37/34/34 38/36/36
f 38/36/36 39/38/38 40/40/40
f 36/32/32 38/36/36 40/40/40
f 32/24/24 36/32/32 40/40/40
f 28/16/16 32/24/24 40/40/40
f 24/8/8 28/16/16 40/40/40
f 22/3/3 24/8/8 40/40/40
f 21/4/4 22/3/3 40/40/40
f 126/61/42 127/62/42 128/63/42
f 129/63/42 130/64/42 131/61/42
f 132/62/43 133/65/43 134/66/43
f 135/66/43 136/63/43 137/62/43
f 138/65/44 139/67/44 140/68/44
f 141/68/44 142/66/44 143/65/44
f 144/67/45 145/69/45 146/70/45
f 147/70/45 148/68/45 149/67/45
f 150/69/46 151/71/46 152/72/46
f 153/72/46 154/70/46 155/69/46
f 156/71/47 157/73/47 158/74/47
f 159/74/47 160/72/47 161/71/47
f 162/73/48 163/75/48 164/76/48
f 165/76/48 166/74/48 167/73/48
f 168/75/49 169/77/49 170/78/49
f 171/78/49 172/76/49 173/75/49
f 174/77/50 175/79/50 176/80/50
f 177/80/50 178/78/50 179/77/50
f 180/79/51 181/81/51 182/82/51
f 183/82/51 184/80/51 185/79/51
f 186/83/52 187/84/52 188/85/52
f 189/85/52 190/86/52 191/83/52
f 192/84/53 193/87/53 194/88/53
f 195/88/53 196/85/53 197/84/53
f 198/87/54 199/89/54 200/90/54
f 201/90/54 202/88/54 203/87/54
f 204/89/55 205/91/55 206/92/55
f 207/92/55 208/90/55 209/89/55
f 210/91/56 211/93/56 212/94/56
f 213/94/56 214/92/56 215/91/56
f 216/93/57 217/95/57 218/96/57
f 219/96/57 220/94/57 221/93/57
f 222/95/58 223/97/58 224/98/58
f 225/98/58 226/96/58 227/95/58
f 228/97/59 229/99/59 230/100/59
f 231/100/59 232/98/59 233/97/59
f 234/99/60 235/101/60 236/102/60
f 237/102/60 238/100/60 239/99/60
f 240/101/61 241/103/61 242/104/61
f 243/104/61 244/102/61 245/101/61
f 61/105/62 62/106/63 63/107/64
f 61/105/62 63/107/64 64/108/65
f 61/105/62 64/108/65 65/109/66
f 61/105/62 65/109/66 66/110/67
f 61/105/62 66/110/67 67/111/68
f 61/105/62 67/111/68 68/112/69
f 61/105/62 68/112/69 69/113/70
f 61/105/62 69/113/70 62/106/63
f 71/114/71 63/107/64 62/106/63
f 62/106/63 70/115/72 71/114/71
f 72/116/73 64/108/65 63/107/64
f 63/107/64 71/114/71 72/116/73
f 73/117/74 65/109/66 64/108/65
f 64/108/65 72/116/73 73/117/74
f 74/118/75 66/110/67 65/109/66
f 65/109/66 73/117/74 74/118/75
f 75/119/76 67/111/68 66/110/67
f 66/110/67 74/118/75 75/119/76
f 76/120/77 68/112/69 67/111/68
f 67/111/68 75/119/76 76/120/77
f 77/121/78 69/113/70 68/112/69
f 68/112/69 76/120/77 77/121/78
f 70/115/72 62/106/63 69/113/70
f 69/113/70 77/121/78 70/115/72
f 78/122/79 80/123/80 81/124/81
f 81/124/81 79/125/79 78/122/79
f 80/123/80 82/126/81 83/127/80
f 83/127/80 81/124/81 80/123/80
f 82/126/81 84/128/82 85/129/83
f 85/129/83 83/127/80 82/126/81
f 84/128/82 86/130/83 87/131/82
f 87/131/82 85/129/83 84/128/82
f 86/130/83 88/132/84 89/133/84
f 89/133/84 87/131/82 86/130/83
f 92/134/85 93/135/85 95/136/86
f 95/136/86 94/137/87 92/134/85
f 94/137/87 95/136/86 97/138/88
f 97/138/88 96/139/89 94/137/87
f 96/139/89 97/138/88 99/140/90
f 99/140/90 98/141/90 96/139/89
f 78/122/79 79/125/79 91/142/91
f 91/142/91 90/143/91 78/122/79
f 246/144/92 247/145/92 248/146/92
f 249/146/92 250/147/92 251/144/92
f 252/145/92 253/148/92 254/149/92
f 255/149/92 256/146/92 257/145/92
f 258/148/92 259/150/92 260/151/92
f 261/151/92 262/149/92 263/148/92
f 264/150/92 265/152/92 266/153/92
f 267/153/92 268/151/92 269/150/92
f 270/152/92 271/154/92 101/155/92
f 101/155/92 272/153/92 273/152/92
f 89/133/84 88/132/84 100/156/93
f 100/156/93 274/157/93 89/133/84
f 275/154/94 276/152/94 277/153/94
f 278/153/94 279/155/94 280/154/94
f 281/152/94 282/150/94 283/151/94
f 284/151/94 285/153/94 286/152/94
f 287/150/94 288/148/94 289/149/94
f 290/149/94 291/151/94 292/150/94
f 293/148/94 294/145/94 295/146/94
f 296/146/94 297/149/94 298/148/94
f 299/145/94 300/144/94 301/147/94
f 302/147/94 303/146/94 304/145/94
f 102/158/79 104/159/95 105/160/96
f 105/160/96 103/161/79 102/158/79
f 104/159/95 106/162/96 107/163/95
f 107/163/95 105/160/96 104/159/95
f 106/162/96 108/164/97 109/165/98
f 109/165/98 107/163/95 106/162/96
f 108/164/97 110/166/98 111/167/97
f 111/167/97 109/165/98 108/164/97
f 110/166/98 112/168/84 113/169/84
f 113/169/84 111/167/97 110/166/98
f 116/170/99 117/171/99 119/172/100
f 119/172/100 118/173/101 116/170/99
f 118/173/101 119/172/100 121/174/102
f 121/174/102 120/175/103 118/173/101
f 120/175/103 121/174/102 123/176/104
f 123/176/104 122/177/104 120/175/103
f 102/158/79 103/161/79 115/178/91
f 115/178/91 114/179/91 102/158/79
f 305/180/92 306/181/92 307/182/92
f 308/182/92 309/183/92 310/180/92
f 311/181/92 312/184/92 313/185/92
f 314/185/92 315/182/92 316/181/92
f 317/184/92 318/186/92 319/187/92
f 320/187/92 321/185/92 322/184/92
f 323/186/92 324/188/92 325/189/92
f 326/189/92 327/187/92 328/186/92
f 329/188/92 330/190/92 125/191/92
f 125/191/92 331/189/92 332/188/92
f 113/169/84 112/168/84 124/192/93
f 124/192/93 333/193/93 113/169/84
f 334/190/94 335/188/94 336/189/94
f 337/189/94 338/191/94 339/190/94
f 340/188/94 341/186/94 342/187/94
f 343/187/94 344/189/94 345/188/94
f 346/186/94 347/184/94 348/185/94
f 349/185/94 350/187/94 351/186/94
f 352/184/94 353/181/94 354/182/94
f 355/182/94 356/185/94 357/184/94
f 358/181/94 359/180/94 360/183/94
f 361/183/94 362/182/94 363/181/94
# 220 triangles in group

# 220 triangles total

